%YAML 1.1
%TAG !u! tag:unity3d.com,2011:
--- !u!114 &11400000
MonoBehaviour:
  m_ObjectHideFlags: 0
  m_CorrespondingSourceObject: {fileID: 0}
  m_PrefabInstance: {fileID: 0}
  m_PrefabAsset: {fileID: 0}
  m_GameObject: {fileID: 0}
  m_Enabled: 1
  m_EditorHideFlags: 0
  m_Script: {fileID: 11500000, guid: aded7bff9a2bcad4c9c9d62e7e87d975, type: 3}
  m_Name: Cricket
  m_EditorClassIdentifier: 
  sprite: {fileID: 21300000, guid: 6b127dd9c56e5834fbfbd5218cc0480c, type: 3}
  isOwned: 1
  type: 1
  name: 
  main: 4
  mortar: 5
  air: 3
  drones: 1
  radar: 2
  mainPremium: 0
  mortarPremium: 0
  airPremium: 0
  dronesPremium: 0
  radarPremium: 0
